*** Darwin 18x20 ***
Turn = 0.
  01234567890123456789
0 ....................
1 ....................
2 ....................
3 ....................
4 ....................
5 h...................
6 ....................
7 ....................
8 ....................
9 ....................
0 .r..................
1 ....................
2 ....................
3 ....................
4 ....................
5 ....................
6 ....................
7 ....................

Turn = 12.
  01234567890123456789
0 ....................
1 ....................
2 ....................
3 ....................
4 ....................
5 h...................
6 ....................
7 ....................
8 ....................
9 ....................
0 .............r......
1 ....................
2 ....................
3 ....................
4 ....................
5 ....................
6 ....................
7 ....................

Turn = 24.
  01234567890123456789
0 ....................
1 ....................
2 ....................
3 ....................
4 ....................
5 h...................
6 ....................
7 ....................
8 ....................
9 ....................
0 ....................
1 ....................
2 ....................
3 ....................
4 ....................
5 ...................r
6 ....................
7 ....................

Turn = 36.
  01234567890123456789
0 ....................
1 ....................
2 ....................
3 ....................
4 ....................
5 h...................
6 ....................
7 ....................
8 ....................
9 ....................
0 ....................
1 ....................
2 ....................
3 ....................
4 ....................
5 ....................
6 ....................
7 ............r.......

Turn = 48.
  01234567890123456789
0 ....................
1 ....................
2 ....................
3 ....................
4 ....................
5 h...................
6 ....................
7 ....................
8 ....................
9 ....................
0 ....................
1 ....................
2 ....................
3 ....................
4 ....................
5 ....................
6 ....................
7 r...................

Turn = 60.
  01234567890123456789
0 ....................
1 ....................
2 ....................
3 ....................
4 ....................
5 h...................
6 r...................
7 ....................
8 ....................
9 ....................
0 ....................
1 ....................
2 ....................
3 ....................
4 ....................
5 ....................
6 ....................
7 ....................

Turn = 72.
  01234567890123456789
0 ....r...............
1 ....................
2 ....................
3 ....................
4 ....................
5 ....................
6 ....................
7 ....................
8 ....................
9 ....................
0 ....................
1 ....................
2 ....................
3 ....................
4 ....................
5 r...................
6 ....................
7 ....................

Turn = 84.
  01234567890123456789
0 ................r...
1 ....................
2 ....................
3 ....................
4 ....................
5 ....................
6 ....................
7 ....................
8 ....................
9 ....................
0 ....................
1 ....................
2 ....................
3 r...................
4 ....................
5 ....................
6 ....................
7 ....................

Turn = 96.
  01234567890123456789
0 ............r.......
1 r...................
2 ....................
3 ....................
4 ....................
5 ....................
6 ....................
7 ....................
8 ....................
9 ....................
0 ....................
1 ....................
2 ....................
3 ....................
4 ....................
5 ....................
6 ....................
7 ....................

*** Darwin 13x2 ***
Turn = 0.
  01
0 .t
1 ..
2 .t
3 .t
4 f.
5 ..
6 ..
7 h.
8 ..
9 ..
0 ..
1 ..
2 ..

Turn = 17.
  01
0 .t
1 ..
2 .t
3 .t
4 f.
5 ..
6 ..
7 h.
8 ..
9 ..
0 ..
1 ..
2 ..

Turn = 34.
  01
0 .t
1 ..
2 .t
3 .t
4 f.
5 ..
6 ..
7 h.
8 ..
9 ..
0 ..
1 ..
2 ..

Turn = 51.
  01
0 .t
1 ..
2 .t
3 .t
4 f.
5 ..
6 ..
7 h.
8 ..
9 ..
0 ..
1 ..
2 ..

Turn = 68.
  01
0 .t
1 ..
2 .t
3 .t
4 f.
5 ..
6 ..
7 h.
8 ..
9 ..
0 ..
1 ..
2 ..

*** Darwin 7x15 ***
Turn = 0.
  012345678901234
0 r.........f...t
1 ...............
2 ...............
3 ...............
4 .t.............
5 .h...h.f...h...
6 ..............h

*** Darwin 10x6 ***
Turn = 0.
  012345
0 ......
1 ......
2 ..h...
3 r.....
4 ...r..
5 ..t..h
6 ....r.
7 f...t.
8 .t....
9 ....t.

*** Darwin 4x3 ***
Turn = 0.
  012
0 h..
1 ff.
2 rfr
3 f..

Turn = 14.
  012
0 ..r
1 rrr
2 rr.
3 .r.

*** Darwin 18x6 ***
Turn = 0.
  012345
0 ......
1 ......
2 r.....
3 ......
4 ......
5 ......
6 ......
7 ......
8 ......
9 ......
0 ......
1 ......
2 ......
3 ......
4 ......
5 ......
6 ......
7 ......

Turn = 4.
  012345
0 ......
1 ......
2 ....r.
3 ......
4 ......
5 ......
6 ......
7 ......
8 ......
9 ......
0 ......
1 ......
2 ......
3 ......
4 ......
5 ......
6 ......
7 ......

Turn = 8.
  012345
0 ......
1 ......
2 ......
3 ......
4 .....r
5 ......
6 ......
7 ......
8 ......
9 ......
0 ......
1 ......
2 ......
3 ......
4 ......
5 ......
6 ......
7 ......

Turn = 12.
  012345
0 ......
1 ......
2 ......
3 ......
4 ......
5 ......
6 ......
7 ......
8 .....r
9 ......
0 ......
1 ......
2 ......
3 ......
4 ......
5 ......
6 ......
7 ......

Turn = 16.
  012345
0 ......
1 ......
2 ......
3 ......
4 ......
5 ......
6 ......
7 ......
8 ......
9 ......
0 ......
1 ......
2 .....r
3 ......
4 ......
5 ......
6 ......
7 ......

Turn = 20.
  012345
0 ......
1 ......
2 ......
3 ......
4 ......
5 ......
6 ......
7 ......
8 ......
9 ......
0 ......
1 ......
2 ......
3 ......
4 ......
5 ......
6 .....r
7 ......

Turn = 24.
  012345
0 ......
1 ......
2 ......
3 ......
4 ......
5 ......
6 ......
7 ......
8 ......
9 ......
0 ......
1 ......
2 ......
3 ......
4 ......
5 ......
6 ......
7 .....r

Turn = 28.
  012345
0 ......
1 ......
2 ......
3 ......
4 ......
5 ......
6 ......
7 ......
8 ......
9 ......
0 ......
1 ......
2 ......
3 ......
4 ......
5 ......
6 ......
7 .r....

Turn = 32.
  012345
0 ......
1 ......
2 ......
3 ......
4 ......
5 ......
6 ......
7 ......
8 ......
9 ......
0 ......
1 ......
2 ......
3 ......
4 ......
5 r.....
6 ......
7 ......

Turn = 36.
  012345
0 ......
1 ......
2 ......
3 ......
4 ......
5 ......
6 ......
7 ......
8 ......
9 ......
0 ......
1 r.....
2 ......
3 ......
4 ......
5 ......
6 ......
7 ......

Turn = 40.
  012345
0 ......
1 ......
2 ......
3 ......
4 ......
5 ......
6 ......
7 r.....
8 ......
9 ......
0 ......
1 ......
2 ......
3 ......
4 ......
5 ......
6 ......
7 ......

Turn = 44.
  012345
0 ......
1 ......
2 ......
3 r.....
4 ......
5 ......
6 ......
7 ......
8 ......
9 ......
0 ......
1 ......
2 ......
3 ......
4 ......
5 ......
6 ......
7 ......

Turn = 48.
  012345
0 r.....
1 ......
2 ......
3 ......
4 ......
5 ......
6 ......
7 ......
8 ......
9 ......
0 ......
1 ......
2 ......
3 ......
4 ......
5 ......
6 ......
7 ......

Turn = 52.
  012345
0 ....r.
1 ......
2 ......
3 ......
4 ......
5 ......
6 ......
7 ......
8 ......
9 ......
0 ......
1 ......
2 ......
3 ......
4 ......
5 ......
6 ......
7 ......

Turn = 56.
  012345
0 ....r.
1 ......
2 ......
3 ......
4 ......
5 ......
6 ......
7 ......
8 ......
9 ......
0 ......
1 ......
2 ......
3 ......
4 ......
5 ......
6 ......
7 ......

Turn = 60.
  012345
0 r.....
1 ......
2 ......
3 ......
4 ......
5 ......
6 ......
7 ......
8 ......
9 ......
0 ......
1 ......
2 ......
3 ......
4 ......
5 ......
6 ......
7 ......

Turn = 64.
  012345
0 ..r...
1 ......
2 ......
3 ......
4 ......
5 ......
6 ......
7 ......
8 ......
9 ......
0 ......
1 ......
2 ......
3 ......
4 ......
5 ......
6 ......
7 ......

Turn = 68.
  012345
0 .....r
1 ......
2 ......
3 ......
4 ......
5 ......
6 ......
7 ......
8 ......
9 ......
0 ......
1 ......
2 ......
3 ......
4 ......
5 ......
6 ......
7 ......

Turn = 72.
  012345
0 .....r
1 ......
2 ......
3 ......
4 ......
5 ......
6 ......
7 ......
8 ......
9 ......
0 ......
1 ......
2 ......
3 ......
4 ......
5 ......
6 ......
7 ......

Turn = 76.
  012345
0 ......
1 ......
2 ......
3 ......
4 .....r
5 ......
6 ......
7 ......
8 ......
9 ......
0 ......
1 ......
2 ......
3 ......
4 ......
5 ......
6 ......
7 ......

Turn = 80.
  012345
0 ......
1 ......
2 ......
3 ......
4 ......
5 ......
6 ......
7 ......
8 .....r
9 ......
0 ......
1 ......
2 ......
3 ......
4 ......
5 ......
6 ......
7 ......

Turn = 84.
  012345
0 ......
1 ......
2 ......
3 ......
4 ......
5 ......
6 ......
7 ......
8 ......
9 ......
0 ......
1 ......
2 .....r
3 ......
4 ......
5 ......
6 ......
7 ......

Turn = 88.
  012345
0 ......
1 ......
2 ......
3 ......
4 ......
5 ......
6 ......
7 ......
8 ......
9 ......
0 ......
1 ......
2 ......
3 ......
4 ......
5 ......
6 .....r
7 ......

Turn = 92.
  012345
0 ......
1 ......
2 ......
3 ......
4 ......
5 ......
6 ......
7 ......
8 ......
9 ......
0 ......
1 ......
2 ......
3 ......
4 ......
5 ......
6 .....r
7 ......

*** Darwin 18x16 ***
Turn = 0.
  0123456789012345
0 ................
1 ................
2 ................
3 ................
4 ................
5 ................
6 ................
7 ................
8 ................
9 ................
0 ................
1 ................
2 ................
3 ................
4 ................
5 ................
6 h...............
7 ................

Turn = 4.
  0123456789012345
0 ................
1 ................
2 ................
3 ................
4 ................
5 ................
6 ................
7 ................
8 ................
9 ................
0 ................
1 ................
2 ................
3 ................
4 ................
5 ................
6 h...............
7 ................

Turn = 8.
  0123456789012345
0 ................
1 ................
2 ................
3 ................
4 ................
5 ................
6 ................
7 ................
8 ................
9 ................
0 ................
1 ................
2 ................
3 ................
4 ................
5 ................
6 h...............
7 ................

Turn = 12.
  0123456789012345
0 ................
1 ................
2 ................
3 ................
4 ................
5 ................
6 ................
7 ................
8 ................
9 ................
0 ................
1 ................
2 ................
3 ................
4 ................
5 ................
6 h...............
7 ................

Turn = 16.
  0123456789012345
0 ................
1 ................
2 ................
3 ................
4 ................
5 ................
6 ................
7 ................
8 ................
9 ................
0 ................
1 ................
2 ................
3 ................
4 ................
5 ................
6 h...............
7 ................

Turn = 20.
  0123456789012345
0 ................
1 ................
2 ................
3 ................
4 ................
5 ................
6 ................
7 ................
8 ................
9 ................
0 ................
1 ................
2 ................
3 ................
4 ................
5 ................
6 h...............
7 ................

Turn = 24.
  0123456789012345
0 ................
1 ................
2 ................
3 ................
4 ................
5 ................
6 ................
7 ................
8 ................
9 ................
0 ................
1 ................
2 ................
3 ................
4 ................
5 ................
6 h...............
7 ................

Turn = 28.
  0123456789012345
0 ................
1 ................
2 ................
3 ................
4 ................
5 ................
6 ................
7 ................
8 ................
9 ................
0 ................
1 ................
2 ................
3 ................
4 ................
5 ................
6 h...............
7 ................

Turn = 32.
  0123456789012345
0 ................
1 ................
2 ................
3 ................
4 ................
5 ................
6 ................
7 ................
8 ................
9 ................
0 ................
1 ................
2 ................
3 ................
4 ................
5 ................
6 h...............
7 ................

Turn = 36.
  0123456789012345
0 ................
1 ................
2 ................
3 ................
4 ................
5 ................
6 ................
7 ................
8 ................
9 ................
0 ................
1 ................
2 ................
3 ................
4 ................
5 ................
6 h...............
7 ................

Turn = 40.
  0123456789012345
0 ................
1 ................
2 ................
3 ................
4 ................
5 ................
6 ................
7 ................
8 ................
9 ................
0 ................
1 ................
2 ................
3 ................
4 ................
5 ................
6 h...............
7 ................

Turn = 44.
  0123456789012345
0 ................
1 ................
2 ................
3 ................
4 ................
5 ................
6 ................
7 ................
8 ................
9 ................
0 ................
1 ................
2 ................
3 ................
4 ................
5 ................
6 h...............
7 ................

Turn = 48.
  0123456789012345
0 ................
1 ................
2 ................
3 ................
4 ................
5 ................
6 ................
7 ................
8 ................
9 ................
0 ................
1 ................
2 ................
3 ................
4 ................
5 ................
6 h...............
7 ................

Turn = 52.
  0123456789012345
0 ................
1 ................
2 ................
3 ................
4 ................
5 ................
6 ................
7 ................
8 ................
9 ................
0 ................
1 ................
2 ................
3 ................
4 ................
5 ................
6 h...............
7 ................

Turn = 56.
  0123456789012345
0 ................
1 ................
2 ................
3 ................
4 ................
5 ................
6 ................
7 ................
8 ................
9 ................
0 ................
1 ................
2 ................
3 ................
4 ................
5 ................
6 h...............
7 ................

Turn = 60.
  0123456789012345
0 ................
1 ................
2 ................
3 ................
4 ................
5 ................
6 ................
7 ................
8 ................
9 ................
0 ................
1 ................
2 ................
3 ................
4 ................
5 ................
6 h...............
7 ................

*** Darwin 10x11 ***
Turn = 0.
  01234567890
0 ...........
1 ...........
2 ...........
3 .t.........
4 ........h..
5 ...........
6 ...........
7 .....h.....
8 ...r.......
9 .........r.

Turn = 11.
  01234567890
0 ...........
1 ...........
2 ...........
3 .t.........
4 ......r...h
5 r..........
6 ...........
7 ...........
8 ...........
9 r..........

Turn = 22.
  01234567890
0 .....r....r
1 ...........
2 ...........
3 .t.........
4 ..........h
5 ...........
6 ...........
7 ...........
8 ...........
9 .........r.

*** Darwin 17x13 ***
Turn = 0.
  0123456789012
0 ....f........
1 .....f.......
2 ..h..........
3 .............
4 .............
5 h............
6 .............
7 ...t.........
8 .............
9 .........t...
0 .............
1 .....rh......
2 ........f....
3 .............
4 ........h....
5 .h.........t.
6 ..f..........

Turn = 2.
  0123456789012
0 ....f........
1 .....f.......
2 ....h........
3 .............
4 .............
5 h............
6 .............
7 ...t.........
8 .............
9 .....r...t...
0 .............
1 .............
2 ........f....
3 ......h......
4 .............
5 ...h.......t.
6 ..f.....h....

Turn = 4.
  0123456789012
0 ....f........
1 .....f.......
2 ......h......
3 .............
4 .............
5 h............
6 .............
7 ...t.r.......
8 .............
9 .........t...
0 .............
1 .............
2 ........f....
3 .............
4 .............
5 .....hh....t.
6 ..f.....h....

Turn = 6.
  0123456789012
0 ....f........
1 .....f.......
2 ........h....
3 .............
4 .............
5 h....r.......
6 .............
7 ...t.........
8 .............
9 .........t...
0 .............
1 .............
2 ........f....
3 .............
4 .............
5 ......h....t.
6 ..f...h.h....

Turn = 8.
  0123456789012
0 ....f........
1 .....f.......
2 ..........h..
3 .....r.......
4 .............
5 h............
6 .............
7 ...t.........
8 .............
9 .........t...
0 .............
1 .............
2 ........f....
3 .............
4 .............
5 ........h..t.
6 ..f...h.h....

*** Darwin 15x15 ***
Turn = 0.
  012345678901234
0 ...............
1 ........f......
2 .....t.....h...
3 ...............
4 .........t.....
5 ...............
6 ...............
7 ...............
8 r..............
9 ..............h
0 ..f............
1 ...............
2 ...............
3 ............f..
4 h..............

Turn = 17.
  012345678901234
0 .....r.........
1 ........f......
2 .....t........h
3 ...............
4 .........t.....
5 ...............
6 ...............
7 ...............
8 ...............
9 ...............
0 ..f............
1 ...............
2 ...............
3 ............f..
4 h.............h

Turn = 34.
  012345678901234
0 ..............r
1 ........f......
2 .....t.........
3 ...............
4 .........t.....
5 ...............
6 ...............
7 ..............r
8 ...............
9 ...............
0 ..f............
1 ...............
2 ...............
3 ............f..
4 h.............h

*** Darwin 19x13 ***
Turn = 0.
  0123456789012
0 .......r.....
1 .............
2 .............
3 .............
4 .............
5 .............
6 .............
7 .........t.h.
8 .............
9 .............
0 .............
1 .............
2 ..........h..
3 .............
4 .............
5 ...........f.
6 ..f..........
7 .............
8 .............

Turn = 16.
  0123456789012
0 .............
1 .............
2 .............
3 .............
4 .............
5 .............
6 ............r
7 .........tt.r
8 .............
9 .............
0 .............
1 .............
2 .............
3 .............
4 .............
5 ...........f.
6 ..f..........
7 .............
8 .............

Turn = 32.
  0123456789012
0 .............
1 .............
2 .............
3 .............
4 .............
5 .............
6 .........t...
7 .........tt..
8 .............
9 .............
0 .............
1 .............
2 .............
3 .............
4 .............
5 ...........fr
6 ..f..........
7 .............
8 .............

Turn = 48.
  0123456789012
0 ............r
1 .............
2 .............
3 .............
4 .............
5 .............
6 .........t...
7 .........tt..
8 .............
9 .............
0 .............
1 .............
2 .............
3 .............
4 .............
5 ...........f.
6 ..f..........
7 .............
8 .............

Turn = 64.
  0123456789012
0 .............
1 .............
2 .............
3 .............
4 .............
5 .............
6 .........t...
7 .........tt..
8 .............
9 .............
0 .............
1 .............
2 .............
3 .............
4 .............
5 ...........fr
6 ..f..........
7 .............
8 .............

Turn = 80.
  0123456789012
0 .............
1 .............
2 .............
3 .............
4 .............
5 .............
6 .........t...
7 .........tt..
8 .............
9 .............
0 .............
1 .............
2 .............
3 .............
4 .............
5 ...........f.
6 ..f..........
7 .............
8 ....r........

Turn = 96.
  0123456789012
0 .............
1 .............
2 .............
3 .............
4 .............
5 .............
6 .........t...
7 .........tt..
8 .............
9 .............
0 .............
1 .............
2 .............
3 .............
4 .............
5 ...........f.
6 ..f..........
7 .............
8 ..........r..

*** Darwin 6x6 ***
Turn = 0.
  012345
0 ......
1 ..h...
2 ..hf..
3 ...ff.
4 r...r.
5 ......

Turn = 3.
  012345
0 ......
1 h.....
2 r..f..
3 r..ff.
4 ......
5 .....r

Turn = 6.
  012345
0 ......
1 r.....
2 r..f..
3 ..rff.
4 ......
5 ....r.

Turn = 9.
  012345
0 ......
1 r.....
2 .r.f..
3 ...r.r
4 ....r.
5 .r....

*** Darwin 13x6 ***
Turn = 0.
  012345
0 .....t
1 ......
2 ff....
3 ......
4 ......
5 ......
6 ......
7 ......
8 ..t...
9 ......
0 ....t.
1 ......
2 .....h

*** Darwin 7x17 ***
Turn = 0.
  01234567890123456
0 .................
1 .r...............
2 .................
3 .................
4 f................
5 .................
6 .................

Turn = 16.
  01234567890123456
0 .................
1 ................r
2 .................
3 .................
4 f................
5 .................
6 .................

Turn = 32.
  01234567890123456
0 .................
1 .................
2 .................
3 .................
4 f................
5 .................
6 ........r........

Turn = 48.
  01234567890123456
0 r................
1 .................
2 .................
3 .................
4 .................
5 .................
6 r................

Turn = 64.
  01234567890123456
0 ...........r.....
1 .................
2 .................
3 .................
4 .................
5 .................
6 .r...............

*** Darwin 11x16 ***
Turn = 0.
  0123456789012345
0 .h...t....h.....
1 ....r...........
2 ................
3 ......r.........
4 ................
5 ................
6 .....t...h......
7 h..h...........f
8 ................
9 ................
0 ................

Turn = 2.
  0123456789012345
0 .h...t......h...
1 ..r...r.........
2 ................
3 ................
4 .........h......
5 h..h............
6 .....t..........
7 ...............f
8 ................
9 ................
0 ................

Turn = 4.
  0123456789012345
0 .h...tr.......h.
1 r...............
2 .........h......
3 h..h............
4 ................
5 ................
6 .....t..........
7 ...............f
8 ................
9 ................
0 ................

Turn = 6.
  0123456789012345
0 .h...tt..h.....h
1 r..h............
2 r...............
3 ................
4 ................
5 ................
6 .....t..........
7 ...............f
8 ................
9 ................
0 ................

Turn = 8.
  0123456789012345
0 .h.h.tt..h.....h
1 r...............
2 ..r.............
3 ................
4 ................
5 ................
6 .....t..........
7 ...............f
8 ................
9 ................
0 ................

Turn = 10.
  0123456789012345
0 rh.h.tt..h.....h
1 ................
2 ....r...........
3 ................
4 ................
5 ................
6 .....t..........
7 ...............f
8 ................
9 ................
0 ................

Turn = 12.
  0123456789012345
0 rr.h.tt..h.....h
1 ................
2 ......r.........
3 ................
4 ................
5 ................
6 .....t..........
7 ...............f
8 ................
9 ................
0 ................

Turn = 14.
  0123456789012345
0 rr.h.tt..h.....h
1 ................
2 ........r.......
3 ................
4 ................
5 ................
6 .....t..........
7 ...............f
8 ................
9 ................
0 ................

Turn = 16.
  0123456789012345
0 ...h.tt..h.....h
1 ................
2 rr........r.....
3 ................
4 ................
5 ................
6 .....t..........
7 ...............f
8 ................
9 ................
0 ................

Turn = 18.
  0123456789012345
0 ...h.tt..h.....h
1 ................
2 ............r...
3 ................
4 rr..............
5 ................
6 .....t..........
7 ...............f
8 ................
9 ................
0 ................

Turn = 20.
  0123456789012345
0 ...h.tt..h.....h
1 ................
2 ..............r.
3 ................
4 ................
5 ................
6 rr...t..........
7 ...............f
8 ................
9 ................
0 ................

Turn = 22.
  0123456789012345
0 ...h.tt..h.....h
1 ................
2 ...............r
3 ................
4 ................
5 ................
6 .....t..........
7 ...............f
8 rr..............
9 ................
0 ................

Turn = 24.
  0123456789012345
0 ...h.tt..h.....h
1 ................
2 ................
3 ................
4 ...............r
5 ................
6 .....t..........
7 ...............f
8 ................
9 ................
0 rr..............

Turn = 26.
  0123456789012345
0 ...h.tt..h.....h
1 ................
2 ................
3 ................
4 ................
5 ................
6 .....t.........r
7 ...............f
8 ................
9 ................
0 r.r.............

Turn = 28.
  0123456789012345
0 ...h.tt..h.....h
1 ................
2 ................
3 ................
4 ................
5 ................
6 .....t..........
7 .............r.r
8 ................
9 ................
0 .r..r...........

Turn = 30.
  0123456789012345
0 ...h.tt..h.....h
1 ................
2 ................
3 ................
4 ................
5 ................
6 .....t..........
7 ...........r....
8 ................
9 ...............r
0 ...r..r.........

Turn = 32.
  0123456789012345
0 ...h.tt..h.....h
1 ................
2 ................
3 ................
4 ................
5 ................
6 .....t..........
7 .........r......
8 ................
9 ................
0 .....r..r......r

Turn = 34.
  0123456789012345
0 ...h.tt..h.....h
1 ................
2 ................
3 ................
4 ................
5 ................
6 .....t..........
7 .......r........
8 ................
9 ...............r
0 .......r..r.....

Turn = 36.
  0123456789012345
0 ...h.tt..h.....h
1 ................
2 ................
3 ................
4 ................
5 ................
6 .....t..........
7 .....r.........r
8 ................
9 ................
0 .........r..r...

Turn = 38.
  0123456789012345
0 ...h.tt..h.....h
1 ................
2 ................
3 ................
4 ................
5 ...............r
6 .....t..........
7 .....t..........
8 ................
9 ................
0 ...........r..r.

Turn = 40.
  0123456789012345
0 ...h.tt..h.....h
1 ................
2 ................
3 ...............r
4 ................
5 ................
6 .....t..........
7 .....t..........
8 ................
9 ................
0 .............r.r

Turn = 42.
  0123456789012345
0 ...h.tt..h.....h
1 ...............r
2 ................
3 ................
4 ................
5 ................
6 .....t..........
7 .....t..........
8 ................
9 ................
0 ..............rr

Turn = 44.
  0123456789012345
0 ...h.tt..h.....r
1 ...............r
2 ................
3 ................
4 ................
5 ................
6 .....t..........
7 .....t..........
8 ................
9 ................
0 ..............rr

Turn = 46.
  0123456789012345
0 ...h.tt..h.....r
1 ...............r
2 ................
3 ................
4 ................
5 ................
6 .....t..........
7 .....t..........
8 ................
9 ................
0 ..............rr

Turn = 48.
  0123456789012345
0 ...h.tt..h....rr
1 ................
2 ................
3 ................
4 ................
5 ................
6 .....t..........
7 .....t..........
8 ...............r
9 ................
0 .............r..

Turn = 50.
  0123456789012345
0 ...h.tt..h..r..r
1 ................
2 ................
3 ................
4 ................
5 ................
6 .....t.........r
7 .....t..........
8 ................
9 ................
0 ...........r....

Turn = 52.
  0123456789012345
0 ...h.tt..hr.....
1 ................
2 ...............r
3 ................
4 ...............r
5 ................
6 .....t..........
7 .....t..........
8 ................
9 ................
0 .........r......

Turn = 54.
  0123456789012345
0 ...h.tt..rr.....
1 ................
2 ................
3 ...............r
4 ...............r
5 ................
6 .....t..........
7 .....t..........
8 ................
9 ................
0 .......r........

Turn = 56.
  0123456789012345
0 ...h.ttr...r....
1 ................
2 ...............r
3 ................
4 ...............r
5 ................
6 .....t..........
7 .....t..........
8 ................
9 ................
0 .....r..........

Turn = 58.
  0123456789012345
0 ...h.ttt.....r.r
1 ................
2 ...............r
3 ................
4 ................
5 ................
6 .....t..........
7 .....t..........
8 ................
9 ................
0 ...r............

Turn = 60.
  0123456789012345
0 ...h.ttt......rr
1 ...............r
2 ................
3 ................
4 ................
5 ................
6 .....t..........
7 .....t..........
8 ................
9 ................
0 .r..............

Turn = 62.
  0123456789012345
0 ...h.ttt.....rrr
1 ................
2 ................
3 ................
4 ................
5 ................
6 .....t..........
7 .....t..........
8 ................
9 ................
0 r...............

*** Darwin 7x13 ***
Turn = 0.
  0123456789012
0 .....h.......
1 .....r....f.f
2 .............
3 .t....r....f.
4 .............
5 t............
6 .......f.....

Turn = 17.
  0123456789012
0 h........rr..
1 ...........r.
2 .............
3 .t.........f.
4 .............
5 t...........r
6 ............r

Turn = 34.
  0123456789012
0 h...r.......r
1 .............
2 .............
3 .t...........
4 .............
5 .r...........
6 rr.....r...r.

Turn = 51.
  0123456789012
0 r..........r.
1 rr...........
2 .............
3 .....r.......
4 .............
5 r.......r....
6 ...r.....r...

*** Darwin 4x4 ***
Turn = 0.
  0123
0 r.rr
1 ....
2 r.r.
3 rff.

Turn = 2.
  0123
0 rrr.
1 ..rr
2 ....
3 rff.

Turn = 4.
  0123
0 r..r
1 .r..
2 ..r.
3 rrfr

Turn = 6.
  0123
0 .rr.
1 ....
2 rrr.
3 .rrr

Turn = 8.
  0123
0 rr..
1 ..r.
2 r..r
3 r.rr

Turn = 10.
  0123
0 rr.r
1 ...r
2 ..r.
3 r.rr

Turn = 12.
  0123
0 r.r.
1 rr.r
2 r.rr
3 ....

Turn = 14.
  0123
0 rr..
1 r.rr
2 ..r.
3 r..r

Turn = 16.
  0123
0 r.r.
1 r...
2 r..r
3 .rrr

Turn = 18.
  0123
0 .r.r
1 r...
2 rrr.
3 .r.r

Turn = 20.
  0123
0 ..rr
1 r.rr
2 ....
3 rr.r

Turn = 22.
  0123
0 ..rr
1 .rrr
2 ...r
3 r.r.

Turn = 24.
  0123
0 .rr.
1 ..r.
2 ..rr
3 rr.r

Turn = 26.
  0123
0 rr..
1 r...
2 ..r.
3 rrrr

Turn = 28.
  0123
0 r.r.
1 r...
2 rr..
3 r.rr

Turn = 30.
  0123
0 .r.r
1 ..rr
2 r.r.
3 rr..

Turn = 32.
  0123
0 ..rr
1 ..rr
2 rr.r
3 .r..

Turn = 34.
  0123
0 rrr.
1 .rrr
2 ....
3 r..r

Turn = 36.
  0123
0 rrr.
1 ..r.
2 .r.r
3 .r.r

Turn = 38.
  0123
0 rr..
1 r...
2 rrr.
3 ..rr

*** Darwin 1x7 ***
Turn = 0.
  0123456
0 hftt.h.

*** Darwin 20x6 ***
Turn = 0.
  012345
0 ......
1 ......
2 ..r...
3 ......
4 .r....
5 ......
6 ......
7 .....t
8 f.....
9 h.....
0 ......
1 ......
2 ......
3 ......
4 h.....
5 ......
6 ......
7 ..ff.h
8 ....t.
9 ...h.h

Turn = 16.
  012345
0 ......
1 ......
2 .....r
3 ......
4 ......
5 ......
6 ......
7 .....r
8 f....r
9 .....r
0 ......
1 ......
2 ......
3 ......
4 ......
5 ......
6 ......
7 ..ttt.
8 h...t.
9 h....h

Turn = 32.
  012345
0 ......
1 r.....
2 ......
3 ......
4 ......
5 .....r
6 ......
7 ......
8 ......
9 ......
0 ......
1 ......
2 ......
3 ......
4 r.....
5 ......
6 ......
7 .ttttt
8 h...t.
9 h....h

*** Darwin 17x18 ***
Turn = 0.
  012345678901234567
0 ..................
1 .r......t.........
2 ..................
3 ..................
4 ..................
5 ..................
6 ..................
7 ..................
8 ..........t.......
9 ..................
0 ..................
1 ..................
2 ..................
3 ..................
4 ..................
5 ..................
6 ..................

Turn = 10.
  012345678901234567
0 ..................
1 ........t.........
2 ..................
3 ..................
4 ..................
5 ..................
6 ..................
7 ..................
8 ..........t.......
9 ..................
0 ..................
1 .r................
2 ..................
3 ..................
4 ..................
5 ..................
6 ..................
